Wort_1;Wort_2;Madoo_Nutzername;Datei_T_Spalte1;Datei_T_Spalte2;Datei_P_Spalte1;Datei_P_Spalte2;Kategorie
Bäder;weder;BeatriceF;thomas_bäder;thomas_weder;;;I
Bord;Wort;BeatriceF;thomas_bord;thomas_wort;;;I
bellt;Welt;BeatriceF;thomas_bellt;thomas_welt;;;I
beiß;weiß;BeatriceF;thomas_beiss;thomas_weiss;;;I
Ballen;wallen;BeatriceF;thomas_ballen;thomas_wallen;;;I
bangen;Wangen;BeatriceF;thomas_bangen;thomas_wangen;;;I
Bild;wild;BeatriceF;thomas_bild;thomas_wild;;;I
billig;willig;BeatriceF;thomas_billig;thomas_willig;;;I
Bock;Wok;BeatriceF;thomas_bock;thomas_wok;;;I
Bissen;Wissen;BeatriceF;thomas_bissen;thomas_wissen;;;I
Beile;Weile;BeatriceF;thomas_beile;thomas_weile;;;I
baden;Waden;BeatriceF;thomas_baden;thomas_waden;;;I
Bären;wären;BeatriceF;thomas_bären;thomas_wären;;;I
bald;Wald;BeatriceF;thomas_bald;thomas_wald;;;I
Betten;Wetten;BeatriceF;thomas_betten;thomas_wetten;;;I
bieder;wieder;BeatriceF;thomas_bieder;thomas_wieder;;;I
Bohnen;wohnen;BeatriceF;thomas_bohnen;thomas_wohnen;;;I
Birken;wirken;BeatriceF;thomas_birken;thomas_wirken;;;I
Bürde;Würde;BeatriceF;thomas_bürde;thomas_würde;;;I
Wüste;Büste;BeatriceF;thomas_wüste;thomas_büste;;;I
wuchten;Buchten;BeatriceF;thomas_wuchten;thomas_buchten;;;I
Wrack;Brack;BeatriceF;thomas_wrack;thomas_brack;;;I
Worte;Borte;BeatriceF;thomas_worte;thomas_borte;;;I
wiegen;biegen;BeatriceF;thomas_wiegen;thomas_biegen;;;I
weben;beben;BeatriceF;thomas_weben;thomas_beben;;;I
warte;Barte;BeatriceF;thomas_warte;thomas_barte;;;I
wahre;Bahre;BeatriceF;thomas_wahre;thomas_bahre;;;I
Wache;Bache;BeatriceF;thomas_wache;thomas_bache;;;I
weil;Beil;BeatriceF;thomas_weil;thomas_beil;;;I
Wasser;Basser;BeatriceF;thomas_wasser;thomas_basser;;;I
Wesen;Besen;BeatriceF;thomas_wesen;thomas_besen;;;I
was;Bass;BeatriceF;thomas_was;thomas_bass;;;I
Weiher;Bayer;BeatriceF;thomas_weiher;thomas_bayer;;;I
Welle;Bälle;BeatriceF;thomas_welle;thomas_bälle;;;I
Weste;beste;BeatriceF;thomas_weste;thomas_beste;;;I
wecken;Becken;BeatriceF;thomas_wecken;thomas_becken;;;I
Wucht;Bucht;BeatriceF;thomas_wucht;thomas_bucht;;;I
Weile;Beile;BeatriceF;thomas_weile;thomas_beile;;;I
