Wort_1;Wort_2;Madoo_Nutzername;Datei_T_Spalte1;Datei_T_Spalte2;Datei_P_Spalte2;Datei_P_Spalte2_1;Kategorie
fischen;wischen;BeatriceF;thomas_fischen;thomas_wischen;;;I
finden;winden;BeatriceF;thomas_finden;thomas_winden;;;I
fühlen;wühlen;BeatriceF;thomas_fühlen;thomas_wühlen;;;I
finde;Winde;BeatriceF;thomas_finde;thomas_winde;;;I
Fund;wund;BeatriceF;thomas_fund;thomas_wund;;;I
Fall;Wall;BeatriceF;thomas_fall;thomas_wall;;;I
fein;Wein;BeatriceF;thomas_fein;thomas_wein;;;I
Fach;wach;BeatriceF;thomas_fach;thomas_wach;;;I
Farm;warm;BeatriceF;thomas_farm;thomas_warm;;;I
fegen;wegen;BeatriceF;thomas_fegen;thomas_wegen;;;I
Fink;Wink;BeatriceF;thomas_fink;thomas_wink;;;I
Falter;Walter;BeatriceF;thomas_falter;thomas_walter;;;I
Fleck;weg;BeatriceF;thomas_fleck;thomas_weg;;;I
Feste;Weste;BeatriceF;thomas_feste;thomas_weste;;;I
fallen;wallen;BeatriceF;thomas_fallen;thomas_wallen;;;I
fangen;Wangen;BeatriceF;thomas_fangen;thomas_wangen;;;I
Frage;Waage;BeatriceF;thomas_frage;thomas_waage;;;I
Fette;Wette;BeatriceF;thomas_fette;thomas_wette;;;I
Farbe;Wabe;BeatriceF;thomas_farbe;thomas_wabe;;;I
Felle;Welle;BeatriceF;thomas_felle;thomas_welle;;;I
Fisch;wisch;BeatriceF;thomas_fisch;thomas_wisch;;;I
fällt;Welt;BeatriceF;thomas_fällt;thomas_welt;;;I
fort;Wort;BeatriceF;thomas_fort;thomas_wort;;;I
Feile;Weile;BeatriceF;thomas_feile;thomas_weile;;;I
Feder;weder;BeatriceF;thomas_feder;thomas_weder;;;I
fair;wer;BeatriceF;thomas_fair;thomas_wer;;;I
Phase;Vase;BeatriceF;thomas_phase;thomas_vase;;;I
fahr;war;BeatriceF;thomas_fahr;thomas_war;;;I
fände;Wände;BeatriceF;thomas_fände;thomas_wände;;;I
fällen;Wellen;BeatriceF;thomas_fällen;thomas_wellen;;;I
vier;wir;BeatriceF;thomas_vier;thomas_wir;;;I
